digraph pipeline {
  rankdir=LR;
  fontname="sans";
  fontsize="10";
  labelloc=t;
  nodesep=.1;
  ranksep=.2;
  label="<GstPipeline>\npipeline0\n[-] -> [=]";
  node [style="filled,rounded", shape=box, fontsize="9", fontname="sans", margin="0.0,0.0"];
  edge [labelfontsize="6", fontsize="9", fontname="monospace"];
  
  legend [
    pos="0,0!",
    margin="0.05,0.05",
    style="filled",
    label="Legend\lElement-States: [~] void-pending, [0] null, [-] ready, [=] paused, [>] playing\lPad-Activation: [-] none, [>] push, [<] pull\lPad-Flags: [b]locked, [f]lushing, [b]locking, [E]OS; upper-case is set\lPad-Task: [T] has started task, [t] has paused task\l",
  ];
  subgraph cluster_capsfilter0_0x1800210 {
    fontname="Bitstream Vera Sans";
    fontsize="8";
    style="filled,rounded";
    color=black;
    label="GstCapsFilter\ncapsfilter0\n[-]\nparent=(GstPipeline) pipeline0\ncaps=video/x-raw, width=(int)1920, height=(int)1080, framerate=(fraction)30/1";
    subgraph cluster_capsfilter0_0x1800210_sink {
      label="";
      style="invis";
      capsfilter0_0x1800210_sink_0x17b1440 [color=black, fillcolor="#aaaaff", label="sink\n[-][bFb]", height="0.2", style="filled,solid"];
    }

    subgraph cluster_capsfilter0_0x1800210_src {
      label="";
      style="invis";
      capsfilter0_0x1800210_src_0x17b1690 [color=black, fillcolor="#ffaaaa", label="src\n[-][bFb]", height="0.2", style="filled,solid"];
    }

    capsfilter0_0x1800210_sink_0x17b1440 -> capsfilter0_0x1800210_src_0x17b1690 [style="invis"];
    fillcolor="#aaffaa";
  }

  capsfilter0_0x1800210_src_0x17b1690 -> x264enc0_0x17bab10_sink_0x17b0410 [labeldistance="10", labelangle="0", label="                                                  ", taillabel="ANY", headlabel="video/x-raw\l           framerate: [ 0/1, 2147483647/1 ]\l               width: [ 16, 2147483647 ]\l              height: [ 16, 2147483647 ]\l              format: { (string)Y444, (str... }\l"]
  subgraph cluster_f_0x17f4060 {
    fontname="Bitstream Vera Sans";
    fontsize="8";
    style="filled,rounded";
    color=black;
    label="GstFtlSink\nf\n[-]\nparent=(GstPipeline) pipeline0\nstream-key=\"68564700-ccgTV44og8xp0FLtyEAomD7reXAsU4HM\"";
    subgraph cluster_f_0x17f4060_sink {
      label="";
      style="invis";
      _proxypad0_0x17f8060 [color=black, fillcolor="#ddddff", label="proxypad0\n[-][bfb]", height="0.2", style="filled,solid"];
    f_0x17f4060_videosink_0x17f60d0 -> _proxypad0_0x17f8060 [style=dashed, minlen=0]
      f_0x17f4060_videosink_0x17f60d0 [color=black, fillcolor="#ddddff", label="videosink\n[-][bFb]", height="0.2", style="filled,solid"];
      _proxypad1_0x17f82c0 [color=black, fillcolor="#ddddff", label="proxypad1\n[-][bfb]", height="0.2", style="filled,solid"];
    f_0x17f4060_audiosink_0x17f6350 -> _proxypad1_0x17f82c0 [style=dashed, minlen=0]
      f_0x17f4060_audiosink_0x17f6350 [color=black, fillcolor="#ddddff", label="audiosink\n[-][bFb]", height="0.2", style="filled,solid"];
    }

    fillcolor="#ffffff";
    subgraph cluster_audiosink_0x17f39f0 {
      fontname="Bitstream Vera Sans";
      fontsize="8";
      style="filled,rounded";
      color=black;
      label="GstFtlAudioSink\naudiosink\n[-]\nparent=(GstFtlSink) f\nstats=application/x-gst-base-sink-stats, average-rate=(double)0, dropped=(guint64)0, r…";
      subgraph cluster_audiosink_0x17f39f0_sink {
        label="";
        style="invis";
        audiosink_0x17f39f0_sink_0x17b11f0 [color=black, fillcolor="#aaaaff", label="sink\n[-][bFb]", height="0.2", style="filled,solid"];
      }

      fillcolor="#aaaaff";
    }

    _proxypad1_0x17f82c0 -> audiosink_0x17f39f0_sink_0x17b11f0 [label="audio/x-opus\l"]
    subgraph cluster_videosink_0x17ee1f0 {
      fontname="Bitstream Vera Sans";
      fontsize="8";
      style="filled,rounded";
      color=black;
      label="GstFtlVideoSink\nvideosink\n[-]\nparent=(GstFtlSink) f\nstats=application/x-gst-base-sink-stats, average-rate=(double)0, dropped=(guint64)0, r…";
      subgraph cluster_videosink_0x17ee1f0_sink {
        label="";
        style="invis";
        videosink_0x17ee1f0_sink_0x17b0fa0 [color=black, fillcolor="#aaaaff", label="sink\n[-][bFb]", height="0.2", style="filled,solid"];
      }

      fillcolor="#aaaaff";
    }

    _proxypad0_0x17f8060 -> videosink_0x17ee1f0_sink_0x17b0fa0 [label="video/x-h264\l       stream-format: byte-stream\l           alignment: au\l"]
  }

  subgraph cluster_opusenc0_0x17c7cc0 {
    fontname="Bitstream Vera Sans";
    fontsize="8";
    style="filled,rounded";
    color=black;
    label="GstOpusEnc\nopusenc0\n[-]\nparent=(GstPipeline) pipeline0";
    subgraph cluster_opusenc0_0x17c7cc0_sink {
      label="";
      style="invis";
      opusenc0_0x17c7cc0_sink_0x17b0b00 [color=black, fillcolor="#aaaaff", label="sink\n[-][bFb]", height="0.2", style="filled,solid"];
    }

    subgraph cluster_opusenc0_0x17c7cc0_src {
      label="";
      style="invis";
      opusenc0_0x17c7cc0_src_0x17b0d50 [color=black, fillcolor="#ffaaaa", label="src\n[-][bFb]", height="0.2", style="filled,solid"];
    }

    opusenc0_0x17c7cc0_sink_0x17b0b00 -> opusenc0_0x17c7cc0_src_0x17b0d50 [style="invis"];
    fillcolor="#aaffaa";
  }

  opusenc0_0x17c7cc0_src_0x17b0d50 -> f_0x17f4060_audiosink_0x17f6350 [label="audio/x-opus\l"]
  subgraph cluster_audiotestsrc0_0x17c28e0 {
    fontname="Bitstream Vera Sans";
    fontsize="8";
    style="filled,rounded";
    color=black;
    label="GstAudioTestSrc\naudiotestsrc0\n[-]\nparent=(GstPipeline) pipeline0\nblocksize=4294967295";
    subgraph cluster_audiotestsrc0_0x17c28e0_src {
      label="";
      style="invis";
      audiotestsrc0_0x17c28e0_src_0x17b08b0 [color=black, fillcolor="#ffaaaa", label="src\n[-][bFb]", height="0.2", style="filled,solid"];
    }

    fillcolor="#ffaaaa";
  }

  audiotestsrc0_0x17c28e0_src_0x17b08b0 -> opusenc0_0x17c7cc0_sink_0x17b0b00 [labeldistance="10", labelangle="0", label="                                                  ", taillabel="audio/x-raw\l              format: { (string)S16LE, (st... }\l              layout: { (string)interleave... }\l                rate: [ 1, 2147483647 ]\l            channels: [ 1, 2147483647 ]\l", headlabel="audio/x-raw\l              format: S16LE\l              layout: interleaved\l                rate: 48000\l            channels: [ 1, 8 ]\laudio/x-raw\l              format: S16LE\l              layout: interleaved\l                rate: { (int)8000, (int)12... }\l            channels: [ 1, 8 ]\l"]
  subgraph cluster_x264enc0_0x17bab10 {
    fontname="Bitstream Vera Sans";
    fontsize="8";
    style="filled,rounded";
    color=black;
    label="GstX264Enc\nx264enc0\n[-]\nparent=(GstPipeline) pipeline0\nbitrate=2800\nb-adapt=FALSE\nkey-int-max=30\nspeed-preset=superfast\ntune=zerolatency";
    subgraph cluster_x264enc0_0x17bab10_sink {
      label="";
      style="invis";
      x264enc0_0x17bab10_sink_0x17b0410 [color=black, fillcolor="#aaaaff", label="sink\n[-][bFb]", height="0.2", style="filled,solid"];
    }

    subgraph cluster_x264enc0_0x17bab10_src {
      label="";
      style="invis";
      x264enc0_0x17bab10_src_0x17b0660 [color=black, fillcolor="#ffaaaa", label="src\n[-][bFb]", height="0.2", style="filled,solid"];
    }

    x264enc0_0x17bab10_sink_0x17b0410 -> x264enc0_0x17bab10_src_0x17b0660 [style="invis"];
    fillcolor="#aaffaa";
  }

  x264enc0_0x17bab10_src_0x17b0660 -> f_0x17f4060_videosink_0x17f60d0 [labeldistance="10", labelangle="0", label="                                                  ", taillabel="video/x-h264\l           framerate: [ 0/1, 2147483647/1 ]\l               width: [ 1, 2147483647 ]\l              height: [ 1, 2147483647 ]\l       stream-format: { (string)avc, (stri... }\l           alignment: au\l             profile: { (string)high-4:4:4... }\l", headlabel="video/x-h264\l       stream-format: byte-stream\l           alignment: au\l"]
  subgraph cluster_videotestsrc0_0x17c16f0 {
    fontname="Bitstream Vera Sans";
    fontsize="8";
    style="filled,rounded";
    color=black;
    label="GstVideoTestSrc\nvideotestsrc0\n[-]\nparent=(GstPipeline) pipeline0";
    subgraph cluster_videotestsrc0_0x17c16f0_src {
      label="";
      style="invis";
      videotestsrc0_0x17c16f0_src_0x17b01c0 [color=black, fillcolor="#ffaaaa", label="src\n[-][bFb]", height="0.2", style="filled,solid"];
    }

    fillcolor="#ffaaaa";
  }

  videotestsrc0_0x17c16f0_src_0x17b01c0 -> capsfilter0_0x1800210_sink_0x17b1440 [labeldistance="10", labelangle="0", label="                                                  ", taillabel="video/x-raw\l              format: { (string)I420, (str... }\l               width: [ 1, 2147483647 ]\l              height: [ 1, 2147483647 ]\l           framerate: [ 0/1, 2147483647/1 ]\l      multiview-mode: { (string)mono, (str... }\lvideo/x-bayer\l              format: { (string)bggr, (str... }\l               width: [ 1, 2147483647 ]\l              height: [ 1, 2147483647 ]\l           framerate: [ 0/1, 2147483647/1 ]\l      multiview-mode: { (string)mono, (str... }\l", headlabel="ANY"]
}
