<?xml version="1.0" encoding="UTF-8" standalone="no"?>
<!-- Generated by graphviz version 2.40.1 (0)
 -->

<!-- Title: pipeline Pages: 1 -->

<svg
   xmlns:dc="http://purl.org/dc/elements/1.1/"
   xmlns:cc="http://creativecommons.org/ns#"
   xmlns:rdf="http://www.w3.org/1999/02/22-rdf-syntax-ns#"
   xmlns:svg="http://www.w3.org/2000/svg"
   xmlns="http://www.w3.org/2000/svg"
   xmlns:sodipodi="http://sodipodi.sourceforge.net/DTD/sodipodi-0.dtd"
   xmlns:inkscape="http://www.inkscape.org/namespaces/inkscape"
   width="2486pt"
   height="402pt"
   viewBox="0.00 0.00 2486.00 402.00"
   version="1.1"
   id="svg480"
   sodipodi:docname="pipeline.svg"
   inkscape:version="0.92.4 (unknown)">
  <metadata
     id="metadata486">
    <rdf:RDF>
      <cc:Work
         rdf:about="">
        <dc:format>image/svg+xml</dc:format>
        <dc:type
           rdf:resource="http://purl.org/dc/dcmitype/StillImage" />
        <dc:title></dc:title>
      </cc:Work>
    </rdf:RDF>
  </metadata>
  <defs
     id="defs484" />
  <sodipodi:namedview
     pagecolor="#ffffff"
     bordercolor="#666666"
     borderopacity="1"
     objecttolerance="10"
     gridtolerance="10"
     guidetolerance="10"
     inkscape:pageopacity="0"
     inkscape:pageshadow="2"
     inkscape:window-width="3840"
     inkscape:window-height="2123"
     id="namedview482"
     showgrid="false"
     inkscape:zoom="1"
     inkscape:cx="1691.4222"
     inkscape:cy="268"
     inkscape:window-x="0"
     inkscape:window-y="0"
     inkscape:window-maximized="1"
     inkscape:current-layer="graph0" />
  <g
     id="graph0"
     class="graph"
     transform="scale(1 1) rotate(0) translate(4 398)">
    <title
       id="title2">pipeline</title>
    <polygon
       stroke="transparent"
       points="-4,4 -4,-398 2482,-398 2482,4 -4,4"
       id="polygon4"
       fill="#ffffff" />
    <text
       text-anchor="middle"
       x="1239"
       y="-382"
       font-family="sans"
       font-size="10.00"
       fill="#000000"
       id="text6">&lt;GstPipeline&gt;</text>
    <text
       text-anchor="middle"
       x="1239"
       y="-371"
       font-family="sans"
       font-size="10.00"
       fill="#000000"
       id="text8">pipeline0</text>
    <text
       text-anchor="middle"
       x="1239"
       y="-360"
       font-family="sans"
       font-size="10.00"
       fill="#000000"
       id="text10">[-] -&gt; [=]</text>
    <g
       id="clust1"
       class="cluster">
      <title
         id="title12">cluster_capsfilter0_0x1800210</title>
      <path
         fill="#aaffaa"
         stroke="#000000"
         d="M650,-66C650,-66 1011,-66 1011,-66 1017,-66 1023,-72 1023,-78 1023,-78 1023,-159 1023,-159 1023,-165 1017,-171 1011,-171 1011,-171 650,-171 650,-171 644,-171 638,-165 638,-159 638,-159 638,-78 638,-78 638,-72 644,-66 650,-66"
         id="path14" />
      <text
         text-anchor="middle"
         x="830.5"
         y="-160.6"
         font-family="Bitstream Vera Sans"
         font-size="8.00"
         fill="#000000"
         id="text16">GstCapsFilter</text>
      <text
         text-anchor="middle"
         x="830.5"
         y="-151.6"
         font-family="Bitstream Vera Sans"
         font-size="8.00"
         fill="#000000"
         id="text18">capsfilter0</text>
      <text
         text-anchor="middle"
         x="830.5"
         y="-142.6"
         font-family="Bitstream Vera Sans"
         font-size="8.00"
         fill="#000000"
         id="text20">[-]</text>
      <text
         text-anchor="middle"
         x="830.5"
         y="-133.6"
         font-family="Bitstream Vera Sans"
         font-size="8.00"
         fill="#000000"
         id="text22">parent=(GstPipeline) pipeline0</text>
      <text
         text-anchor="middle"
         x="830.5"
         y="-124.6"
         font-family="Bitstream Vera Sans"
         font-size="8.00"
         fill="#000000"
         id="text24">caps=video/x-raw, width=(int)1920, height=(int)1080, framerate=(fraction)30/1</text>
    </g>
    <g
       id="clust2"
       class="cluster">
      <title
         id="title27">cluster_capsfilter0_0x1800210_sink</title>
    </g>
    <g
       id="clust3"
       class="cluster">
      <title
         id="title30">cluster_capsfilter0_0x1800210_src</title>
    </g>
    <g
       id="clust4"
       class="cluster">
      <title
         id="title33">cluster_f_0x17f4060</title>
      <path
         fill="#ffffff"
         stroke="#000000"
         d="M1784,-58C1784,-58 2466,-58 2466,-58 2472,-58 2478,-64 2478,-70 2478,-70 2478,-333 2478,-333 2478,-339 2472,-345 2466,-345 2466,-345 1784,-345 1784,-345 1778,-345 1772,-339 1772,-333 1772,-333 1772,-70 1772,-70 1772,-64 1778,-58 1784,-58"
         id="path35" />
      <text
         text-anchor="middle"
         x="2125"
         y="-334.6"
         font-family="Bitstream Vera Sans"
         font-size="8.00"
         fill="#000000"
         id="text37">GstFtlSink</text>
      <text
         text-anchor="middle"
         x="2125"
         y="-325.6"
         font-family="Bitstream Vera Sans"
         font-size="8.00"
         fill="#000000"
         id="text39">f</text>
      <text
         text-anchor="middle"
         x="2125"
         y="-316.6"
         font-family="Bitstream Vera Sans"
         font-size="8.00"
         fill="#000000"
         id="text41">[-]</text>
      <text
         text-anchor="middle"
         x="2125"
         y="-307.6"
         font-family="Bitstream Vera Sans"
         font-size="8.00"
         fill="#000000"
         id="text43">parent=(GstPipeline) pipeline0</text>
      <text
         text-anchor="middle"
         x="2125"
         y="-298.6"
         font-family="Bitstream Vera Sans"
         font-size="8.00"
         fill="#000000"
         id="text45">stream-key=&quot;68564700-ccgTV44og8xp0FLtyEAomD7reXAsU4HM&quot;</text>
    </g>
    <g
       id="clust5"
       class="cluster">
      <title
         id="title48">cluster_f_0x17f4060_sink</title>
    </g>
    <g
       id="clust6"
       class="cluster">
      <title
         id="title51">cluster_audiosink_0x17f39f0</title>
      <path
         fill="#aaaaff"
         stroke="#000000"
         d="M2086,-179C2086,-179 2458,-179 2458,-179 2464,-179 2470,-185 2470,-191 2470,-191 2470,-272 2470,-272 2470,-278 2464,-284 2458,-284 2458,-284 2086,-284 2086,-284 2080,-284 2074,-278 2074,-272 2074,-272 2074,-191 2074,-191 2074,-185 2080,-179 2086,-179"
         id="path53" />
      <text
         text-anchor="middle"
         x="2272"
         y="-273.6"
         font-family="Bitstream Vera Sans"
         font-size="8.00"
         fill="#000000"
         id="text55">GstFtlAudioSink</text>
      <text
         text-anchor="middle"
         x="2272"
         y="-264.6"
         font-family="Bitstream Vera Sans"
         font-size="8.00"
         fill="#000000"
         id="text57">audiosink</text>
      <text
         text-anchor="middle"
         x="2272"
         y="-255.6"
         font-family="Bitstream Vera Sans"
         font-size="8.00"
         fill="#000000"
         id="text59">[-]</text>
      <text
         text-anchor="middle"
         x="2272"
         y="-246.6"
         font-family="Bitstream Vera Sans"
         font-size="8.00"
         fill="#000000"
         id="text61">parent=(GstFtlSink) f</text>
      <text
         text-anchor="middle"
         x="2272"
         y="-237.6"
         font-family="Bitstream Vera Sans"
         font-size="8.00"
         fill="#000000"
         id="text63">stats=application/x-gst-base-sink-stats, average-rate=(double)0, dropped=(guint64)0, r…</text>
    </g>
    <g
       id="clust7"
       class="cluster">
      <title
         id="title66">cluster_audiosink_0x17f39f0_sink</title>
    </g>
    <g
       id="clust8"
       class="cluster">
      <title
         id="title69">cluster_videosink_0x17ee1f0</title>
      <path
         fill="#aaaaff"
         stroke="#000000"
         d="M2086,-66C2086,-66 2458,-66 2458,-66 2464,-66 2470,-72 2470,-78 2470,-78 2470,-159 2470,-159 2470,-165 2464,-171 2458,-171 2458,-171 2086,-171 2086,-171 2080,-171 2074,-165 2074,-159 2074,-159 2074,-78 2074,-78 2074,-72 2080,-66 2086,-66"
         id="path71" />
      <text
         text-anchor="middle"
         x="2272"
         y="-160.6"
         font-family="Bitstream Vera Sans"
         font-size="8.00"
         fill="#000000"
         id="text73">GstFtlVideoSink</text>
      <text
         text-anchor="middle"
         x="2272"
         y="-151.6"
         font-family="Bitstream Vera Sans"
         font-size="8.00"
         fill="#000000"
         id="text75">videosink</text>
      <text
         text-anchor="middle"
         x="2272"
         y="-142.6"
         font-family="Bitstream Vera Sans"
         font-size="8.00"
         fill="#000000"
         id="text77">[-]</text>
      <text
         text-anchor="middle"
         x="2272"
         y="-133.6"
         font-family="Bitstream Vera Sans"
         font-size="8.00"
         fill="#000000"
         id="text79">parent=(GstFtlSink) f</text>
      <text
         text-anchor="middle"
         x="2272"
         y="-124.6"
         font-family="Bitstream Vera Sans"
         font-size="8.00"
         fill="#000000"
         id="text81">stats=application/x-gst-base-sink-stats, average-rate=(double)0, dropped=(guint64)0, r…</text>
    </g>
    <g
       id="clust9"
       class="cluster">
      <title
         id="title84">cluster_videosink_0x17ee1f0_sink</title>
    </g>
    <g
       id="clust10"
       class="cluster">
      <title
         id="title87">cluster_opusenc0_0x17c7cc0</title>
      <path
         fill="#aaffaa"
         stroke="#000000"
         d="M1314,-215C1314,-215 1481,-215 1481,-215 1487,-215 1493,-221 1493,-227 1493,-227 1493,-299 1493,-299 1493,-305 1487,-311 1481,-311 1481,-311 1314,-311 1314,-311 1308,-311 1302,-305 1302,-299 1302,-299 1302,-227 1302,-227 1302,-221 1308,-215 1314,-215"
         id="path89" />
      <text
         text-anchor="middle"
         x="1397.5"
         y="-300.6"
         font-family="Bitstream Vera Sans"
         font-size="8.00"
         fill="#000000"
         id="text91">GstOpusEnc</text>
      <text
         text-anchor="middle"
         x="1397.5"
         y="-291.6"
         font-family="Bitstream Vera Sans"
         font-size="8.00"
         fill="#000000"
         id="text93">opusenc0</text>
      <text
         text-anchor="middle"
         x="1397.5"
         y="-282.6"
         font-family="Bitstream Vera Sans"
         font-size="8.00"
         fill="#000000"
         id="text95">[-]</text>
      <text
         text-anchor="middle"
         x="1397.5"
         y="-273.6"
         font-family="Bitstream Vera Sans"
         font-size="8.00"
         fill="#000000"
         id="text97">parent=(GstPipeline) pipeline0</text>
    </g>
    <g
       id="clust11"
       class="cluster">
      <title
         id="title100">cluster_opusenc0_0x17c7cc0_sink</title>
    </g>
    <g
       id="clust12"
       class="cluster">
      <title
         id="title103">cluster_opusenc0_0x17c7cc0_src</title>
    </g>
    <g
       id="clust13"
       class="cluster">
      <title
         id="title106">cluster_audiotestsrc0_0x17c28e0</title>
      <path
         fill="#ffaaaa"
         stroke="#000000"
         d="M841,-215C841,-215 963,-215 963,-215 969,-215 975,-221 975,-227 975,-227 975,-308 975,-308 975,-314 969,-320 963,-320 963,-320 841,-320 841,-320 835,-320 829,-314 829,-308 829,-308 829,-227 829,-227 829,-221 835,-215 841,-215"
         id="path108" />
      <text
         text-anchor="middle"
         x="902"
         y="-309.6"
         font-family="Bitstream Vera Sans"
         font-size="8.00"
         fill="#000000"
         id="text110">GstAudioTestSrc</text>
      <text
         text-anchor="middle"
         x="902"
         y="-300.6"
         font-family="Bitstream Vera Sans"
         font-size="8.00"
         fill="#000000"
         id="text112">audiotestsrc0</text>
      <text
         text-anchor="middle"
         x="902"
         y="-291.6"
         font-family="Bitstream Vera Sans"
         font-size="8.00"
         fill="#000000"
         id="text114">[-]</text>
      <text
         text-anchor="middle"
         x="902"
         y="-282.6"
         font-family="Bitstream Vera Sans"
         font-size="8.00"
         fill="#000000"
         id="text116">parent=(GstPipeline) pipeline0</text>
      <text
         text-anchor="middle"
         x="902"
         y="-273.6"
         font-family="Bitstream Vera Sans"
         font-size="8.00"
         fill="#000000"
         id="text118">blocksize=4294967295</text>
    </g>
    <g
       id="clust14"
       class="cluster">
      <title
         id="title121">cluster_audiotestsrc0_0x17c28e0_src</title>
    </g>
    <g
       id="clust15"
       class="cluster">
      <title
         id="title124">cluster_x264enc0_0x17bab10</title>
      <path
         fill="#aaffaa"
         stroke="#000000"
         d="M1314,-66C1314,-66 1481,-66 1481,-66 1487,-66 1493,-72 1493,-78 1493,-78 1493,-195 1493,-195 1493,-201 1487,-207 1481,-207 1481,-207 1314,-207 1314,-207 1308,-207 1302,-201 1302,-195 1302,-195 1302,-78 1302,-78 1302,-72 1308,-66 1314,-66"
         id="path126" />
      <text
         text-anchor="middle"
         x="1397.5"
         y="-196.6"
         font-family="Bitstream Vera Sans"
         font-size="8.00"
         fill="#000000"
         id="text128">GstX264Enc</text>
      <text
         text-anchor="middle"
         x="1397.5"
         y="-187.6"
         font-family="Bitstream Vera Sans"
         font-size="8.00"
         fill="#000000"
         id="text130">x264enc0</text>
      <text
         text-anchor="middle"
         x="1397.5"
         y="-178.6"
         font-family="Bitstream Vera Sans"
         font-size="8.00"
         fill="#000000"
         id="text132">[-]</text>
      <text
         text-anchor="middle"
         x="1397.5"
         y="-169.6"
         font-family="Bitstream Vera Sans"
         font-size="8.00"
         fill="#000000"
         id="text134">parent=(GstPipeline) pipeline0</text>
      <text
         text-anchor="middle"
         x="1397.5"
         y="-160.6"
         font-family="Bitstream Vera Sans"
         font-size="8.00"
         fill="#000000"
         id="text136">bitrate=2800</text>
      <text
         text-anchor="middle"
         x="1397.5"
         y="-151.6"
         font-family="Bitstream Vera Sans"
         font-size="8.00"
         fill="#000000"
         id="text138">b-adapt=FALSE</text>
      <text
         text-anchor="middle"
         x="1397.5"
         y="-142.6"
         font-family="Bitstream Vera Sans"
         font-size="8.00"
         fill="#000000"
         id="text140">key-int-max=30</text>
      <text
         text-anchor="middle"
         x="1397.5"
         y="-133.6"
         font-family="Bitstream Vera Sans"
         font-size="8.00"
         fill="#000000"
         id="text142">speed-preset=superfast</text>
      <text
         text-anchor="middle"
         x="1397.5"
         y="-124.6"
         font-family="Bitstream Vera Sans"
         font-size="8.00"
         fill="#000000"
         id="text144">tune=zerolatency</text>
    </g>
    <g
       id="clust16"
       class="cluster">
      <title
         id="title147">cluster_x264enc0_0x17bab10_sink</title>
    </g>
    <g
       id="clust17"
       class="cluster">
      <title
         id="title150">cluster_x264enc0_0x17bab10_src</title>
    </g>
    <g
       id="clust18"
       class="cluster">
      <title
         id="title153">cluster_videotestsrc0_0x17c16f0</title>
      <path
         fill="#ffaaaa"
         stroke="#000000"
         d="M118.5,-66C118.5,-66 240.5,-66 240.5,-66 246.5,-66 252.5,-72 252.5,-78 252.5,-78 252.5,-150 252.5,-150 252.5,-156 246.5,-162 240.5,-162 240.5,-162 118.5,-162 118.5,-162 112.5,-162 106.5,-156 106.5,-150 106.5,-150 106.5,-78 106.5,-78 106.5,-72 112.5,-66 118.5,-66"
         id="path155" />
      <text
         text-anchor="middle"
         x="179.5"
         y="-151.6"
         font-family="Bitstream Vera Sans"
         font-size="8.00"
         fill="#000000"
         id="text157">GstVideoTestSrc</text>
      <text
         text-anchor="middle"
         x="179.5"
         y="-142.6"
         font-family="Bitstream Vera Sans"
         font-size="8.00"
         fill="#000000"
         id="text159">videotestsrc0</text>
      <text
         text-anchor="middle"
         x="179.5"
         y="-133.6"
         font-family="Bitstream Vera Sans"
         font-size="8.00"
         fill="#000000"
         id="text161">[-]</text>
      <text
         text-anchor="middle"
         x="179.5"
         y="-124.6"
         font-family="Bitstream Vera Sans"
         font-size="8.00"
         fill="#000000"
         id="text163">parent=(GstPipeline) pipeline0</text>
    </g>
    <g
       id="clust19"
       class="cluster">
      <title
         id="title166">cluster_videotestsrc0_0x17c16f0_src</title>
    </g>
    <!-- legend -->
    <!-- capsfilter0_0x1800210_sink_0x17b1440 -->
    <g
       id="node2"
       class="node">
      <title
         id="title184">capsfilter0_0x1800210_sink_0x17b1440</title>
      <polygon
         fill="#aaaaff"
         stroke="#000000"
         points="786,-102 732,-102 732,-82 786,-82 786,-102"
         id="polygon186" />
      <text
         text-anchor="middle"
         x="759"
         y="-94.8"
         font-family="sans"
         font-size="9.00"
         fill="#000000"
         id="text188">sink</text>
      <text
         text-anchor="middle"
         x="759"
         y="-84.8"
         font-family="sans"
         font-size="9.00"
         fill="#000000"
         id="text190">[-][bFb]</text>
    </g>
    <!-- capsfilter0_0x1800210_src_0x17b1690 -->
    <g
       id="node3"
       class="node">
      <title
         id="title193">capsfilter0_0x1800210_src_0x17b1690</title>
      <polygon
         fill="#ffaaaa"
         stroke="#000000"
         points="929,-102 875,-102 875,-82 929,-82 929,-102"
         id="polygon195" />
      <text
         text-anchor="middle"
         x="902"
         y="-94.8"
         font-family="sans"
         font-size="9.00"
         fill="#000000"
         id="text197">src</text>
      <text
         text-anchor="middle"
         x="902"
         y="-84.8"
         font-family="sans"
         font-size="9.00"
         fill="#000000"
         id="text199">[-][bFb]</text>
    </g>
    <!-- capsfilter0_0x1800210_sink_0x17b1440&#45;&gt;capsfilter0_0x1800210_src_0x17b1690 -->
    <!-- x264enc0_0x17bab10_sink_0x17b0410 -->
    <g
       id="node4"
       class="node">
      <title
         id="title202">x264enc0_0x17bab10_sink_0x17b0410</title>
      <polygon
         fill="#aaaaff"
         stroke="#000000"
         points="1372,-102 1318,-102 1318,-82 1372,-82 1372,-102"
         id="polygon204" />
      <text
         text-anchor="middle"
         x="1345"
         y="-94.8"
         font-family="sans"
         font-size="9.00"
         fill="#000000"
         id="text206">sink</text>
      <text
         text-anchor="middle"
         x="1345"
         y="-84.8"
         font-family="sans"
         font-size="9.00"
         fill="#000000"
         id="text208">[-][bFb]</text>
    </g>
    <!-- capsfilter0_0x1800210_src_0x17b1690&#45;&gt;x264enc0_0x17bab10_sink_0x17b0410 -->
    <g
       id="edge2"
       class="edge">
      <title
         id="title211">capsfilter0_0x1800210_src_0x17b1690-&gt;x264enc0_0x17bab10_sink_0x17b0410</title>
      <path
         fill="none"
         stroke="#000000"
         d="M929.0448,-92C1004.9652,-92 1220.1971,-92 1307.5083,-92"
         id="path213" />
      <polygon
         fill="#000000"
         stroke="#000000"
         points="1307.7463,-95.5001 1317.7463,-92 1307.7463,-88.5001 1307.7463,-95.5001"
         id="polygon215" />
      <text
         text-anchor="middle"
         x="1162.5"
         y="-94.8"
         font-family="monospace"
         font-size="9.00"
         fill="#000000"
         id="text217">                                                  </text>
      <text
         text-anchor="start"
         x="1129.2463"
         y="-104.7"
         font-family="monospace"
         font-size="6.00"
         fill="#000000"
         id="text219">video/x-raw</text>
      <text
         text-anchor="start"
         x="1129.2463"
         y="-97.7"
         font-family="monospace"
         font-size="6.00"
         fill="#000000"
         id="text221">           framerate: [ 0/1, 2147483647/1 ]</text>
      <text
         text-anchor="start"
         x="1129.2463"
         y="-90.7"
         font-family="monospace"
         font-size="6.00"
         fill="#000000"
         id="text223">               width: [ 16, 2147483647 ]</text>
      <text
         text-anchor="start"
         x="1129.2463"
         y="-83.7"
         font-family="monospace"
         font-size="6.00"
         fill="#000000"
         id="text225">              height: [ 16, 2147483647 ]</text>
      <text
         text-anchor="start"
         x="1129.2463"
         y="-76.7"
         font-family="monospace"
         font-size="6.00"
         fill="#000000"
         id="text227">              format: { (string)Y444, (str... }</text>
      <text
         text-anchor="middle"
         x="1029.0448"
         y="-90.7"
         font-family="monospace"
         font-size="6.00"
         fill="#000000"
         id="text229">ANY</text>
    </g>
    <!-- x264enc0_0x17bab10_src_0x17b0660 -->
    <g
       id="node14"
       class="node">
      <title
         id="title232">x264enc0_0x17bab10_src_0x17b0660</title>
      <polygon
         fill="#ffaaaa"
         stroke="#000000"
         points="1477,-102 1423,-102 1423,-82 1477,-82 1477,-102"
         id="polygon234" />
      <text
         text-anchor="middle"
         x="1450"
         y="-94.8"
         font-family="sans"
         font-size="9.00"
         fill="#000000"
         id="text236">src</text>
      <text
         text-anchor="middle"
         x="1450"
         y="-84.8"
         font-family="sans"
         font-size="9.00"
         fill="#000000"
         id="text238">[-][bFb]</text>
    </g>
    <!-- x264enc0_0x17bab10_sink_0x17b0410&#45;&gt;x264enc0_0x17bab10_src_0x17b0660 -->
    <!-- _proxypad0_0x17f8060 -->
    <g
       id="node5"
       class="node">
      <title
         id="title241">_proxypad0_0x17f8060</title>
      <polygon
         fill="#ddddff"
         stroke="#000000"
         points="1842,-137 1788,-137 1788,-117 1842,-117 1842,-137"
         id="polygon243" />
      <text
         text-anchor="middle"
         x="1815"
         y="-129.8"
         font-family="sans"
         font-size="9.00"
         fill="#000000"
         id="text245">proxypad0</text>
      <text
         text-anchor="middle"
         x="1815"
         y="-119.8"
         font-family="sans"
         font-size="9.00"
         fill="#000000"
         id="text247">[-][bfb]</text>
    </g>
    <!-- videosink_0x17ee1f0_sink_0x17b0fa0 -->
    <g
       id="node10"
       class="node">
      <title
         id="title250">videosink_0x17ee1f0_sink_0x17b0fa0</title>
      <polygon
         fill="#aaaaff"
         stroke="#000000"
         points="2299,-102 2245,-102 2245,-82 2299,-82 2299,-102"
         id="polygon252" />
      <text
         text-anchor="middle"
         x="2272"
         y="-94.8"
         font-family="sans"
         font-size="9.00"
         fill="#000000"
         id="text254">sink</text>
      <text
         text-anchor="middle"
         x="2272"
         y="-84.8"
         font-family="sans"
         font-size="9.00"
         fill="#000000"
         id="text256">[-][bFb]</text>
    </g>
    <!-- _proxypad0_0x17f8060&#45;&gt;videosink_0x17ee1f0_sink_0x17b0fa0 -->
    <g
       id="edge6"
       class="edge">
      <title
         id="title259">_proxypad0_0x17f8060-&gt;videosink_0x17ee1f0_sink_0x17b0fa0</title>
      <path
         fill="none"
         stroke="#000000"
         d="M1842.2188,-124.9154C1920.3256,-118.9335 2145.2955,-101.7038 2234.7105,-94.8559"
         id="path261" />
      <polygon
         fill="#000000"
         stroke="#000000"
         points="2235.2203,-98.3272 2244.9238,-94.0737 2234.6857,-91.3476 2235.2203,-98.3272"
         id="polygon263" />
      <text
         text-anchor="start"
         x="1867"
         y="-144.8"
         font-family="monospace"
         font-size="9.00"
         fill="#000000"
         id="text265">video/x-h264</text>
      <text
         text-anchor="start"
         x="1867"
         y="-134.8"
         font-family="monospace"
         font-size="9.00"
         fill="#000000"
         id="text267">       stream-format: byte-stream</text>
      <text
         text-anchor="start"
         x="1867"
         y="-124.8"
         font-family="monospace"
         font-size="9.00"
         fill="#000000"
         id="text269">           alignment: au</text>
    </g>
    <!-- f_0x17f4060_videosink_0x17f60d0 -->
    <g
       id="node6"
       class="node">
      <title
         id="title272">f_0x17f4060_videosink_0x17f60d0</title>
      <polygon
         fill="#ddddff"
         stroke="#000000"
         points="1842,-110 1788,-110 1788,-90 1842,-90 1842,-110"
         id="polygon274" />
      <text
         text-anchor="middle"
         x="1815"
         y="-102.8"
         font-family="sans"
         font-size="9.00"
         fill="#000000"
         id="text276">videosink</text>
      <text
         text-anchor="middle"
         x="1815"
         y="-92.8"
         font-family="sans"
         font-size="9.00"
         fill="#000000"
         id="text278">[-][bFb]</text>
    </g>
    <!-- f_0x17f4060_videosink_0x17f60d0&#45;&gt;_proxypad0_0x17f8060 -->
    <g
       id="edge3"
       class="edge">
      <title
         id="title281">f_0x17f4060_videosink_0x17f60d0-&gt;_proxypad0_0x17f8060</title>
      <path
         fill="none"
         stroke="#000000"
         stroke-dasharray="5,2"
         d="M1815,-110.125C1815,-110.2678 1815,-110.4106 1815,-110.5535"
         id="path283" />
      <polygon
         fill="#000000"
         stroke="#000000"
         points="1811.5002,-106.9804 1815,-116.9805 1818.5002,-106.9805 1811.5002,-106.9804"
         id="polygon285" />
    </g>
    <!-- _proxypad1_0x17f82c0 -->
    <g
       id="node7"
       class="node">
      <title
         id="title288">_proxypad1_0x17f82c0</title>
      <polygon
         fill="#ddddff"
         stroke="#000000"
         points="1842,-191 1788,-191 1788,-171 1842,-171 1842,-191"
         id="polygon290" />
      <text
         text-anchor="middle"
         x="1815"
         y="-183.8"
         font-family="sans"
         font-size="9.00"
         fill="#000000"
         id="text292">proxypad1</text>
      <text
         text-anchor="middle"
         x="1815"
         y="-173.8"
         font-family="sans"
         font-size="9.00"
         fill="#000000"
         id="text294">[-][bfb]</text>
    </g>
    <!-- audiosink_0x17f39f0_sink_0x17b11f0 -->
    <g
       id="node9"
       class="node">
      <title
         id="title297">audiosink_0x17f39f0_sink_0x17b11f0</title>
      <polygon
         fill="#aaaaff"
         stroke="#000000"
         points="2299,-215 2245,-215 2245,-195 2299,-195 2299,-215"
         id="polygon299" />
      <text
         text-anchor="middle"
         x="2272"
         y="-207.8"
         font-family="sans"
         font-size="9.00"
         fill="#000000"
         id="text301">sink</text>
      <text
         text-anchor="middle"
         x="2272"
         y="-197.8"
         font-family="sans"
         font-size="9.00"
         fill="#000000"
         id="text303">[-][bFb]</text>
    </g>
    <!-- _proxypad1_0x17f82c0&#45;&gt;audiosink_0x17f39f0_sink_0x17b11f0 -->
    <g
       id="edge5"
       class="edge">
      <title
         id="title306">_proxypad1_0x17f82c0-&gt;audiosink_0x17f39f0_sink_0x17b11f0</title>
      <path
         fill="none"
         stroke="#000000"
         d="M1842.2188,-182.4294C1920.3256,-186.5313 2145.2955,-198.3459 2234.7105,-203.0417"
         id="path308" />
      <polygon
         fill="#000000"
         stroke="#000000"
         points="2234.754,-206.5487 2244.9238,-203.5781 2235.1211,-199.5583 2234.754,-206.5487"
         id="polygon310" />
      <text
         text-anchor="start"
         x="1922"
         y="-194.8"
         font-family="monospace"
         font-size="9.00"
         fill="#000000"
         id="text312">audio/x-opus</text>
    </g>
    <!-- f_0x17f4060_audiosink_0x17f6350 -->
    <g
       id="node8"
       class="node">
      <title
         id="title315">f_0x17f4060_audiosink_0x17f6350</title>
      <polygon
         fill="#ddddff"
         stroke="#000000"
         points="1842,-164 1788,-164 1788,-144 1842,-144 1842,-164"
         id="polygon317" />
      <text
         text-anchor="middle"
         x="1815"
         y="-156.8"
         font-family="sans"
         font-size="9.00"
         fill="#000000"
         id="text319">audiosink</text>
      <text
         text-anchor="middle"
         x="1815"
         y="-146.8"
         font-family="sans"
         font-size="9.00"
         fill="#000000"
         id="text321">[-][bFb]</text>
    </g>
    <!-- f_0x17f4060_audiosink_0x17f6350&#45;&gt;_proxypad1_0x17f82c0 -->
    <g
       id="edge4"
       class="edge">
      <title
         id="title324">f_0x17f4060_audiosink_0x17f6350-&gt;_proxypad1_0x17f82c0</title>
      <path
         fill="none"
         stroke="#000000"
         stroke-dasharray="5,2"
         d="M1815,-164.125C1815,-164.2678 1815,-164.4106 1815,-164.5535"
         id="path326" />
      <polygon
         fill="#000000"
         stroke="#000000"
         points="1811.5002,-160.9804 1815,-170.9805 1818.5002,-160.9805 1811.5002,-160.9804"
         id="polygon328" />
    </g>
    <!-- opusenc0_0x17c7cc0_sink_0x17b0b00 -->
    <g
       id="node11"
       class="node">
      <title
         id="title331">opusenc0_0x17c7cc0_sink_0x17b0b00</title>
      <polygon
         fill="#aaaaff"
         stroke="#000000"
         points="1372,-251 1318,-251 1318,-231 1372,-231 1372,-251"
         id="polygon333" />
      <text
         text-anchor="middle"
         x="1345"
         y="-243.8"
         font-family="sans"
         font-size="9.00"
         fill="#000000"
         id="text335">sink</text>
      <text
         text-anchor="middle"
         x="1345"
         y="-233.8"
         font-family="sans"
         font-size="9.00"
         fill="#000000"
         id="text337">[-][bFb]</text>
    </g>
    <!-- opusenc0_0x17c7cc0_src_0x17b0d50 -->
    <g
       id="node12"
       class="node">
      <title
         id="title340">opusenc0_0x17c7cc0_src_0x17b0d50</title>
      <polygon
         fill="#ffaaaa"
         stroke="#000000"
         points="1477,-251 1423,-251 1423,-231 1477,-231 1477,-251"
         id="polygon342" />
      <text
         text-anchor="middle"
         x="1450"
         y="-243.8"
         font-family="sans"
         font-size="9.00"
         fill="#000000"
         id="text344">src</text>
      <text
         text-anchor="middle"
         x="1450"
         y="-233.8"
         font-family="sans"
         font-size="9.00"
         fill="#000000"
         id="text346">[-][bFb]</text>
    </g>
    <!-- opusenc0_0x17c7cc0_sink_0x17b0b00&#45;&gt;opusenc0_0x17c7cc0_src_0x17b0d50 -->
    <!-- opusenc0_0x17c7cc0_src_0x17b0d50&#45;&gt;f_0x17f4060_audiosink_0x17f6350 -->
    <g
       id="edge8"
       class="edge">
      <title
         id="title349">opusenc0_0x17c7cc0_src_0x17b0d50-&gt;f_0x17f4060_audiosink_0x17f6350</title>
      <path
         fill="none"
         stroke="#000000"
         d="M1477.1361,-234.5319C1541.6732,-219.1491 1704.3987,-180.3625 1777.9223,-162.8377"
         id="path351" />
      <polygon
         fill="#000000"
         stroke="#000000"
         points="1778.7693,-166.2339 1787.6852,-160.5106 1777.1462,-159.4247 1778.7693,-166.2339"
         id="polygon353" />
      <text
         text-anchor="start"
         x="1600.5"
         y="-230.8"
         font-family="monospace"
         font-size="9.00"
         fill="#000000"
         id="text355">audio/x-opus</text>
    </g>
    <!-- audiotestsrc0_0x17c28e0_src_0x17b08b0 -->
    <g
       id="node13"
       class="node">
      <title
         id="title358">audiotestsrc0_0x17c28e0_src_0x17b08b0</title>
      <polygon
         fill="#ffaaaa"
         stroke="#000000"
         points="929,-251 875,-251 875,-231 929,-231 929,-251"
         id="polygon360" />
      <text
         text-anchor="middle"
         x="902"
         y="-243.8"
         font-family="sans"
         font-size="9.00"
         fill="#000000"
         id="text362">src</text>
      <text
         text-anchor="middle"
         x="902"
         y="-233.8"
         font-family="sans"
         font-size="9.00"
         fill="#000000"
         id="text364">[-][bFb]</text>
    </g>
    <!-- audiotestsrc0_0x17c28e0_src_0x17b08b0&#45;&gt;opusenc0_0x17c7cc0_sink_0x17b0b00 -->
    <g
       id="edge9"
       class="edge">
      <title
         id="title367">audiotestsrc0_0x17c28e0_src_0x17b08b0-&gt;opusenc0_0x17c7cc0_sink_0x17b0b00</title>
      <path
         fill="none"
         stroke="#000000"
         d="M929.0448,-241C1004.9652,-241 1220.1971,-241 1307.5083,-241"
         id="path369" />
      <polygon
         fill="#000000"
         stroke="#000000"
         points="1307.7463,-244.5001 1317.7463,-241 1307.7463,-237.5001 1307.7463,-244.5001"
         id="polygon371" />
      <text
         text-anchor="middle"
         x="1162.5"
         y="-243.8"
         font-family="monospace"
         font-size="9.00"
         fill="#000000"
         id="text373">                                                  </text>
      <text
         text-anchor="start"
         x="1129.2463"
         y="-271.2"
         font-family="monospace"
         font-size="6.00"
         fill="#000000"
         id="text375">audio/x-raw</text>
      <text
         text-anchor="start"
         x="1129.2463"
         y="-264.2"
         font-family="monospace"
         font-size="6.00"
         fill="#000000"
         id="text377">              format: S16LE</text>
      <text
         text-anchor="start"
         x="1129.2463"
         y="-257.2"
         font-family="monospace"
         font-size="6.00"
         fill="#000000"
         id="text379">              layout: interleaved</text>
      <text
         text-anchor="start"
         x="1129.2463"
         y="-250.2"
         font-family="monospace"
         font-size="6.00"
         fill="#000000"
         id="text381">                rate: 48000</text>
      <text
         text-anchor="start"
         x="1129.2463"
         y="-243.2"
         font-family="monospace"
         font-size="6.00"
         fill="#000000"
         id="text383">            channels: [ 1, 8 ]</text>
      <text
         text-anchor="start"
         x="1129.2463"
         y="-236.2"
         font-family="monospace"
         font-size="6.00"
         fill="#000000"
         id="text385">audio/x-raw</text>
      <text
         text-anchor="start"
         x="1129.2463"
         y="-229.2"
         font-family="monospace"
         font-size="6.00"
         fill="#000000"
         id="text387">              format: S16LE</text>
      <text
         text-anchor="start"
         x="1129.2463"
         y="-222.2"
         font-family="monospace"
         font-size="6.00"
         fill="#000000"
         id="text389">              layout: interleaved</text>
      <text
         text-anchor="start"
         x="1129.2463"
         y="-215.2"
         font-family="monospace"
         font-size="6.00"
         fill="#000000"
         id="text391">                rate: { (int)8000, (int)12... }</text>
      <text
         text-anchor="start"
         x="1129.2463"
         y="-208.2"
         font-family="monospace"
         font-size="6.00"
         fill="#000000"
         id="text393">            channels: [ 1, 8 ]</text>
      <text
         text-anchor="start"
         x="940.5448"
         y="-253.7"
         font-family="monospace"
         font-size="6.00"
         fill="#000000"
         id="text395">audio/x-raw</text>
      <text
         text-anchor="start"
         x="940.5448"
         y="-246.7"
         font-family="monospace"
         font-size="6.00"
         fill="#000000"
         id="text397">              format: { (string)S16LE, (st... }</text>
      <text
         text-anchor="start"
         x="940.5448"
         y="-239.7"
         font-family="monospace"
         font-size="6.00"
         fill="#000000"
         id="text399">              layout: { (string)interleave... }</text>
      <text
         text-anchor="start"
         x="940.5448"
         y="-232.7"
         font-family="monospace"
         font-size="6.00"
         fill="#000000"
         id="text401">                rate: [ 1, 2147483647 ]</text>
      <text
         text-anchor="start"
         x="940.5448"
         y="-225.7"
         font-family="monospace"
         font-size="6.00"
         fill="#000000"
         id="text403">            channels: [ 1, 2147483647 ]</text>
    </g>
    <!-- x264enc0_0x17bab10_src_0x17b0660&#45;&gt;f_0x17f4060_videosink_0x17f60d0 -->
    <g
       id="edge11"
       class="edge">
      <title
         id="title406">x264enc0_0x17bab10_src_0x17b0660-&gt;f_0x17f4060_videosink_0x17f60d0</title>
      <path
         fill="none"
         stroke="#000000"
         d="M1477.1361,-92.5948C1541.5412,-94.0064 1703.7335,-97.5613 1777.4701,-99.1774"
         id="path408" />
      <polygon
         fill="#000000"
         stroke="#000000"
         points="1777.6109,-102.6813 1787.6852,-99.4013 1777.7644,-95.6829 1777.6109,-102.6813"
         id="polygon410" />
      <text
         text-anchor="middle"
         x="1632.5"
         y="-100.8"
         font-family="monospace"
         font-size="9.00"
         fill="#000000"
         id="text412">                                                  </text>
      <text
         text-anchor="start"
         x="1625.7092"
         y="-102.9101"
         font-family="monospace"
         font-size="6.00"
         fill="#000000"
         id="text414">video/x-h264</text>
      <text
         text-anchor="start"
         x="1625.7092"
         y="-95.9101"
         font-family="monospace"
         font-size="6.00"
         fill="#000000"
         id="text416">       stream-format: byte-stream</text>
      <text
         text-anchor="start"
         x="1625.7092"
         y="-88.9101"
         font-family="monospace"
         font-size="6.00"
         fill="#000000"
         id="text418">           alignment: au</text>
      <text
         text-anchor="start"
         x="1488.6121"
         y="-114.486"
         font-family="monospace"
         font-size="6.00"
         fill="#000000"
         id="text420">video/x-h264</text>
      <text
         text-anchor="start"
         x="1488.6121"
         y="-107.486"
         font-family="monospace"
         font-size="6.00"
         fill="#000000"
         id="text422">           framerate: [ 0/1, 2147483647/1 ]</text>
      <text
         text-anchor="start"
         x="1488.6121"
         y="-100.486"
         font-family="monospace"
         font-size="6.00"
         fill="#000000"
         id="text424">               width: [ 1, 2147483647 ]</text>
      <text
         text-anchor="start"
         x="1488.6121"
         y="-93.486"
         font-family="monospace"
         font-size="6.00"
         fill="#000000"
         id="text426">              height: [ 1, 2147483647 ]</text>
      <text
         text-anchor="start"
         x="1488.6121"
         y="-86.486"
         font-family="monospace"
         font-size="6.00"
         fill="#000000"
         id="text428">       stream-format: { (string)avc, (stri... }</text>
      <text
         text-anchor="start"
         x="1488.6121"
         y="-79.486"
         font-family="monospace"
         font-size="6.00"
         fill="#000000"
         id="text430">           alignment: au</text>
      <text
         text-anchor="start"
         x="1488.6121"
         y="-72.486"
         font-family="monospace"
         font-size="6.00"
         fill="#000000"
         id="text432">             profile: { (string)high-4:4:4... }</text>
    </g>
    <!-- videotestsrc0_0x17c16f0_src_0x17b01c0 -->
    <g
       id="node15"
       class="node">
      <title
         id="title435">videotestsrc0_0x17c16f0_src_0x17b01c0</title>
      <polygon
         fill="#ffaaaa"
         stroke="#000000"
         points="206.5,-102 152.5,-102 152.5,-82 206.5,-82 206.5,-102"
         id="polygon437" />
      <text
         text-anchor="middle"
         x="179.5"
         y="-94.8"
         font-family="sans"
         font-size="9.00"
         fill="#000000"
         id="text439">src</text>
      <text
         text-anchor="middle"
         x="179.5"
         y="-84.8"
         font-family="sans"
         font-size="9.00"
         fill="#000000"
         id="text441">[-][bFb]</text>
    </g>
    <!-- videotestsrc0_0x17c16f0_src_0x17b01c0&#45;&gt;capsfilter0_0x1800210_sink_0x17b1440 -->
    <g
       id="edge12"
       class="edge">
      <title
         id="title444">videotestsrc0_0x17c16f0_src_0x17b01c0-&gt;capsfilter0_0x1800210_sink_0x17b1440</title>
      <path
         fill="none"
         stroke="#000000"
         d="M206.6732,-92C300.8755,-92 613.5727,-92 721.7724,-92"
         id="path446" />
      <polygon
         fill="#000000"
         stroke="#000000"
         points="721.8856,-95.5001 731.8856,-92 721.8855,-88.5001 721.8856,-95.5001"
         id="polygon448" />
      <text
         text-anchor="middle"
         x="498.5"
         y="-94.8"
         font-family="monospace"
         font-size="9.00"
         fill="#000000"
         id="text450">                                                  </text>
      <text
         text-anchor="middle"
         x="631.8856"
         y="-90.7"
         font-family="monospace"
         font-size="6.00"
         fill="#000000"
         id="text452">ANY</text>
    </g>
  </g>
</svg>
